                    (A)    CERTIFICATES OF INCORPORATION
                    (B1)   THE COMPANY'S MEMORANDUM AND ARTICLES.
                    (B2)   ANY AMENDMENT TO COMPANY'S ARTICLES (INCLUDING EVERY RESOLUTION OR AGREEMENT REQUIRED TO BE EMBODIED IN OR
                           ANNEXED TO COPIES OF THE COMPANY'S ARTICLES ISSUED BY THE COMPANY).
                    (B3)   AFTER ANY AMENDMENT OF THE COMPANY'S ARTICLES, THE TEXT OF THE ARTICLES AS AMENDED.
                    (B4)   ANY NOTICE OF A CHANGE OF COMPANY'S NAME.
                    (C1)   THE STATEMENT OF PROPOSED OFFICERS REQUIRED ON FORMATION OF THE COMPANY.
                    (C2)   NOTIFICATION OF ANY CHANGE AMONG THE COMPANY'S DIRECTORS.
                    (C3)   NOTIFICATION OF ANY CHANGE IN THE PARTICULARS OF DIRECTORS REQUIRED TO BE DELIVERED TO THE REGISTRAR.
                    (D1)   ALL DOCUMENTS REQUIRED TO BE DELIVERED TO THE REGISTRAR UNDER SECTION 441 (ANNUAL ACCOUNTS AND REPORTS).
                    (D2)   THE COMPANY'S ANNUAL RETURN.
                    (D3)   ALL DOCUMENTS DELIVERED TO THE REGISTRAR UNDER SECTIONS 394A(2)(E), 448A(2)(E) AND 479A(2)(E)
                           (QUALIFYING SUBSIDIARY COMPANIES: CONDITIONS FOR EXEMPTION FROM THE PREPARATION, FILING AND AUDIT OF ACCOUNTS).
                    (D4)   THE COMPANY'S CONFIRMATION STATEMENT.
                    (E1)   NOTIFICATION OF ANY CHANGE OF THE COMPANY'S REGISTERED OFFICE.
                    (F1)   COPY OF ANY WINDING-UP ORDER IN RESPECT OF THE COMPANY.
                    (F2)   NOTICE OF THE APPOINTMENT OF LIQUIDATORS.
                    (F3)   ORDER FOR THE DISSOLUTION OF A COMPANY ON A WINDING UP.
                    (F4)   RETURN BY LIQUIDATOR OF THE FINAL MEETING OF A COMPANY ON A WINDING UP.
                    (G1)   ANY STATEMENT OF CAPITAL AND INITIAL SHAREHOLDINGS.
                    (G2)   ANY RETURN OF ALLOTMENT AND THE STATEMENT OF CAPITAL ACCOMPANYING IT.
                    (G3)   COPY OF ANY RESOLUTION UNDER SECTION 570 OR 571 (DIS-APPLICATION OF PRE-EMPTION RIGHTS).
                    (G4)   COPY OF ANY REPORT UNDER SECTION 593 OR 599 AS TO THE VALUE OF A NON-CASH ASSET.
                    (G5)   STATEMENT OF CAPITAL ACCOMPANYING NOTICE GIVEN UNDER SECTION 625 (NOTICE BY COMPANY OF REDENOMINATION OF SHARES).
                    (G6)   STATEMENT OF CAPITAL ACCOMPANYING NOTICE GIVEN UNDER SECTION 627 (NOTICE BY COMPANY OF REDUCTION OF CAPITAL IN
                           CONNECTION WITH REDENOMINATION OF SHARES).
                    (G7)   NOTICE DELIVERED UNDER SECTION 636 (NOTICE OF NEW NAME OF CLASS OF SHARES) OR 637 (NOTICE OF VARIATION OF RIGHTS
                           ATTACHED TO SHARES).
                    (G8)   STATEMENT OF CAPITAL ACCOMPANYING ORDER DELIVERED UNDER SECTION 649 (ORDER OF COURT CONFIRMING REDUCTION OF
                           CAPITAL) OR ACCOMPANYING ORDER OF COURT TO CANCEL SHARE WARRANTS UNDER SCHEDULE 4 OF SBEE ACT 2015.
                    (G9)   NOTIFICATION (UNDER SECTION 689) OF THE REDEMPTION OF SHARES AND THE STATEMENT OF CAPITAL ACCOMPANYING IT.
                    (G10)  STATEMENT OF CAPITAL ACCOMPANYING RETURN DELIVERED UNDER SECTION 708 (NOTICE OF CANCELLATION OF SHARES ON
                           PURCHASE OF OWN SHARES) OR 730 (NOTICE OF CANCELLATION OF SHARES HELD AS TREASURY SHARES).
                    (G11)  ANY STATEMENT OF COMPLIANCE DELIVERED UNDER SECTION 762 (STATEMENT THAT COMPANY MEETS CONDITIONS FOR ISSUE OF
                           TRADING CERTIFICATE).
                    (H1)   COPY OF ANY DRAFT OF THE TERMS OF A SCHEME REQUIRED TO BE DELIVERED TO THE REGISTRAR UNDER SECTION 906 OR 921.
                    (H2)   COPY OF ANY ORDER UNDER SECTION 899 OR 900 IN RESPECT OF A COMPROMISE OR ARRANGEMENT TO WHICH PART 27 (MERGERS
                           AND DIVISIONS OF PUBLIC COMPANIES) APPLIES.
                    (J1)   THE LAST STATEMENT OF CAPITAL RELATING TO THE COMPANY RECEIVED BY THE REGISTRAR UNDER ANY PROVISION OF THE
                           COMPANIES ACTS.
                    (K1)   ANY RETURN DELIVERED UNDER REGULATION 4 (DUTY TO REGISTER PARTICULARS), REGULATION 12 (DUTY TO REGISTER
                           ALTERATIONS) AND REGULATION 14 (STATEMENT AS TO CERTIFIED COPY OF COMPANY'S CONSTITUTION).
                    (K2)   ANY DOCUMENT DELIVERED UNDER REGULATION 8, 12 OR 14.
                    (K3)   ANY DOCUMENTS DELIVERED UNDER PART 4 (DELIVERY OF ACCOUNTS AND REPORTS BY COMPANIES THAT ARE NOT RELEVANT CREDIT
                           OR FINANCIAL INSTITUTIONS). OR ANY DOCUMENTS DELIVERED UNDER PART 5 (DELIVERY OF ACCOUNTS AND REPORTS BY
                           RELEVANT CREDIT OR FINANCIAL INSTITUTIONS).
                    (K4)   ANY RETURN DELIVERED UNDER REGULATION 56 (PARTICULARS TO BE DELIVERED TO THE REGISTRAR ON A WINDING UP).
                    (K5)   ANY NOTICE UNDER REGULATION 75 (DUTY TO GIVE NOTICE OF CLOSURE OF UK ESTABLISHMENT).
                    (L1)   NOTICE IS HEREBY GIVEN, PURSUANT TO SECTION 1031 OF THE COMPANIES ACT 2006, THAT THE COMPANIES LISTED
                           HEREUNDER HAVE BEEN RESTORED BY COURT ORDER TO THE REGISTER OF COMPANIES.
                    (L2)   NOTICE IS HEREBY GIVEN, PURSUANT TO SECTION 1027 OF THE COMPANIES ACT 2006, THAT THE COMPANIES
                           LISTED HEREUNDER HAVE BEEN ADMINISTRATIVELY RESTORED TO THE REGISTER OF COMPANIES.
        ******************************************************* DOCUMENTS ISSUED ***********************************************************
          ASH RAIL LTD                         11467106    (C2) 01/05/2020  ASH TREE FIELDS MANAGEMENT COMPANY   09062234    (D4) 04/05/2020
          ASHRAJCARE LIMITED                   08608329    (D1) 30/04/2020   LIMITED
          ABOUT CHANGE COMMUNICATIONS LIMITED  05434957    (D1) 30/04/2020  ABRAM BROTHERS BUILDING              08819231    (D1) 29/04/2020
          ABOUT DANCE LTD                      08995177    (D4) 05/05/2020   CONTRACTORS LIMITED
          SPICE HUT (BURTON) LIMITED           08970803    (D4) 29/04/2020  SPIN LEISURE LIMITED                 04867823    (D1) 03/05/2020
          ABBEYGATE PROPERTIES & INVESTMENTS   04190727    (D4) 30/04/2020  ABBOTS COLCHESTER MANAGEMENT 2016    10319790    (D1) 05/05/2020
           LIMITED                                                           LIMITED
          ADAMSON ASSOCIATES (INTERNATIONAL)   03189540    (D4) 04/05/2020  A DAVIES PLUMBING AND HEATING        11337961    (D4) 05/05/2020
           LIMITED                                                           LIMITED
          SPICE HUT SS6 LTD                    10270447    (D1) 30/04/2020  SPINNACLE LTD                        10285166    (D1) 01/05/2020
          ASHTON COURT (LAINDON) MANAGEMENT    09728965    (D1) 05/05/2020  ASHWOOD ELECTRICAL LIMITED           08994141    (E1) 30/04/2020
           LIMITED                                                          ASHWOOD GATE MANAGEMENT COMPANY      05805271    (D4) 04/05/2020
          ABBEY HOUSE MANAGEMENT COMPANY       03051833    (D4) 04/05/2020  ABBOTS LODGE (EASTBOURNE) LIMITED    03047207    (C3) 03/05/2020
           LIMITED                                                          ABBOTSTONE PROPERTY SERVICES LIMITED 07238870    (D4) 01/05/2020
          SPICE HUT GROUP LIMITED              12581157    (B1) 01/05/2020  SPINNA CIRCLE                        08340958    (E1) 30/04/2020
          O-VIEW LTD                           12035576                     PEAS AND LOVE GARDENING SERVICES LTD 11828862         12/05/2020
          OVT OBERFLAECHENVEREDELUNGSTECHNIK   06059692                     PEBBLERIDGE POTTERY LTD              11968485         12/05/2020
           LIMITED                                                          PEEPAL LTD.                          09336896         12/05/2020
          AA JACKPOT LIMITED/WRIGHT            12565538         04/05/2020  ALPHABETICALLY AUTISTIC COMMUNITY    10347751         04/05/2020
           LIFESTYLE LIMITED                                                INTEREST COMPANY/THE LIFE OF  REI
          ABAKUS BYES SOLAR UK LIMITED/BYES    09040319         30/04/2020   REILLY NE CIC
           SOLAR UK LIMITED                                                 ALPHA SPORTS ASSOCIATES LTD/YCS      10467114         05/05/2020
          AI LONDON HOLDINGS LTD/OPTIONS       12117789         30/04/2020  ARCADIA HOME HEATING                 07009628         30/04/2020
           GREATHIRE LIMITED                                                LIMITED/ARCADIA HOME
                                                                             LIMITED
          ABRASUMENTE LTD                      11832181                     AEROSPACE AND DEFENCE SERVICES       11391078         12/05/2020
          ABRAXAS EDUCATION LTD                07519891                      LIMITED











